<?xml version="1.0" encoding="UTF-8"?>
<svg width="77px" height="170px" viewBox="0 0 77 170" version="1.1" xmlns="http://www.w3.org/2000/svg" xmlns:xlink="http://www.w3.org/1999/xlink">
    <!-- Generator: Sketch 62 (91390) - https://sketch.com -->
    <title>pic_nan_5</title>
    <desc>Created with Sketch.</desc>
    <defs>
        <path d="M55.0246552,34.32 C66.1593103,34.32 75.24,43.2666431 75.24,54.3158545 L75.24,54.3158545 L75.24,102.696382 C75.24,106.472424 72.2563448,109.540457 68.4511034,109.540457 C64.6458621,109.540457 61.5541034,106.472424 61.5541034,102.696382 L61.5541034,102.696382 L61.5541034,59.1002704 L58.0083103,59.1002704 L58.0083103,158.478809 C58.0083103,163.542137 53.8355172,167.64 48.7330345,167.64 C43.6305517,167.64 39.501,163.542137 39.501,158.478809 L39.501,158.478809 L39.501,109.991007 L35.7173793,109.991007 L35.7173793,158.478809 C35.7173793,163.542137 31.5878276,167.64 26.4853448,167.64 C21.3828621,167.64 17.2316897,163.542137 17.2316897,158.478809 L17.2316897,158.478809 L17.2316897,59.1002704 L13.6858966,59.1002704 L13.6858966,102.696382 C13.6858966,106.472424 10.5941379,109.540457 6.78889655,109.540457 C2.98365517,109.540457 0,106.472424 0,102.696382 L0,102.696382 L0,54.3158545 C0,43.2666431 9.10231034,34.32 20.2153448,34.32 L20.2153448,34.32 Z M36.96,0 C45.6970564,0 52.8,7.08115543 52.8,15.84 C52.8,24.5770564 45.7188446,31.68 36.96,31.68 C28.2011554,31.68 21.12,24.5770564 21.12,15.84 C21.12,7.1029436 28.2011554,0 36.96,0 Z" id="path-1"></path>
    </defs>
    <g id="页面-1" stroke="none" stroke-width="1" fill="none" fill-rule="evenodd">
        <g id="图标" transform="translate(-352.000000, -1126.000000)">
            <g id="编组-53" transform="translate(352.000000, 1126.000000)">
                <g id="Path-2-+-Path-2-+-Path-2-蒙版备份-7" transform="translate(1.000000, 1.000000)">
                    <mask id="mask-2" fill="white">
                        <use xlink:href="#path-1"></use>
                    </mask>
                    <use id="蒙版" stroke="#33A9FF" stroke-width="1.32" fill="#F0F7FF" fill-rule="nonzero" xlink:href="#path-1"></use>
                    <path d="M-46.2,40.7585853 C-34.1192995,32.4770118 -17.9320517,31.8062536 2.36174351,38.7463107 C22.6555387,45.6863679 56.6282909,47.9526093 104.28,45.5450349 L96.0280874,175.16 L-39.6923941,175.16 L-46.2,40.7585853 Z" id="Path-2" fill="#33A9FF" opacity="0.1" mask="url(#mask-2)" transform="translate(29.040000, 104.580000) scale(-1, 1) translate(-29.040000, -104.580000) "></path>
                    <path d="M-51.1338313,57.1337689 C-21.5558273,37.4180844 3.37905516,31.0669479 23.6708162,38.0803594 C43.9625773,45.093771 66.4142982,47.063164 91.0259789,43.9885386 L91.08,179.12 L-89.76,179.12 L-87.492273,66.0422675 L-51.1338313,57.1337689 Z" id="Path-2" fill="#33A9FF" opacity="0.295596168" mask="url(#mask-2)"></path>
                    <path d="M-43.56,45.3673563 C-19.7979245,39.5121669 2.15951826,40.075891 22.3123284,47.0585287 C42.4651385,54.0411663 67.5876957,50.1283234 97.68,35.32 L97.68,180.44 L-37.0976038,180.44 L-43.56,45.3673563 Z" id="Path-2" fill="#33A9FF" opacity="0.85" mask="url(#mask-2)"></path>
                </g>
            </g>
        </g>
    </g>
</svg>