{
  "id": "3159843",
  "name": "hcm",
  "font_family": "iconfont",
  "css_prefix_text": "icon-",
  "description": "",
  "glyphs": [
    {
      "icon_id": "122304",
      "name": "表情",
      "font_class": "biaoqing",
      "unicode": "e600",
      "unicode_decimal": 58880
    },
    {
      "icon_id": "658053",
      "name": "相机",
      "font_class": "xiangji",
      "unicode": "e672",
      "unicode_decimal": 58994
    },
    {
      "icon_id": "777843",
      "name": "赞",
      "font_class": "icon",
      "unicode": "e651",
      "unicode_decimal": 58961
    },
    {
      "icon_id": "5127663",
      "name": "附件",
      "font_class": "fujian",
      "unicode": "e69e",
      "unicode_decimal": 59038
    },
    {
      "icon_id": "11372687",
      "name": "评论",
      "font_class": "pinglun",
      "unicode": "e8b4",
      "unicode_decimal": 59572
    },
    {
      "icon_id": "17608625",
      "name": "艾特",
      "font_class": "aite",
      "unicode": "e60d",
      "unicode_decimal": 58893
    }
  ]
}
